#Wide m_bb range:

#category    resolved_150_200    resolved_200_350    resolved_350_500    merged
#------------------------------------------------------------------------------
#Z  7694.679601  7305.951937  804.973309  105.950507
#W  3069.508644  2779.268378  258.306821  33.914844
#ttbar  15621.838287  10177.529582  429.367276  17.034517
#stop  1571.777111  1162.510146  109.758555  8.782981
#VH  265.501368  277.405758  36.105870  7.203342
#diboson  755.434118  783.742209  96.419334  17.808992
#------------------------------------------------------------------------------
#zp2hdmbbmzp600mA300  14700.422974  9050.284341  75.707230  1.487416
#zp2hdmbbmzp600mA400  2388.756531  746.512219  13.573445  1.511359
#zp2hdmbbmzp800mA300  3032.554254  40337.727379  4769.097252  8.126595
#zp2hdmbbmzp800mA400  5729.952652  35849.699584  1407.346380  4.582530
#zp2hdmbbmzp800mA500  11660.853194  19531.601775  588.031119  3.417857
#zp2hdmbbmzp1000mA400  1341.051031  23085.106664  28315.455849  314.175351
#zp2hdmbbmzp1000mA500  2255.186047  34071.177355  14425.332280  97.569469
#zp2hdmbbmzp1000mA600  4553.606406  35394.622599  6150.103673  39.296201
#zp2hdmbbmzp1200mA500  705.076485  12379.668472  35391.386776  4957.693706
#zp2hdmbbmzp1200mA600  1195.351620  18968.188088  31346.378714  1922.376519
#zp2hdmbbmzp1200mA700  2155.280497  26346.860513  21662.432557  1274.513409
#zp2hdmbbmzp1400mA500  240.653233  4962.598558  17167.860477  24705.038715
#zp2hdmbbmzp1400mA600  420.483126  7217.807687  23649.860775  17987.499365
#zp2hdmbbmzp1400mA700  685.958957  11405.361309  28471.416561  10993.086797
#zp2hdmbbmzp1400mA800  1117.800969  16135.655459  26834.085143  7431.019324
#zp2hdmbbmzp1600mA300  75.892971  1460.321586  4997.287591  35879.089892
#zp2hdmbbmzp1600mA500  116.141936  2231.624332  7738.737519  33689.723673
#zp2hdmbbmzp1600mA600  173.381986  3256.965236  10442.946413  30672.197367
#zp2hdmbbmzp1600mA700  278.828753  4735.402292  14846.078696  26387.990825
#zp2hdmbbmzp1600mA800  479.229778  7439.483677  19621.895320  20913.529688
#zp2hdmbbmzp1800mA500  49.622085  1125.606215  3774.994713  37022.400905
#zp2hdmbbmzp1800mA600  91.395401  1586.730026  5199.892947  35609.311847
#zp2hdmbbmzp1800mA700  120.503734  2254.213489  7097.755422  34016.568117
#zp2hdmbbmzp1800mA800  205.541541  3469.445151  10149.714063  30985.501361
#zp2hdmbbmzp2000mA400  28.024318  512.163939  1747.881594  37906.966832
#zp2hdmbbmzp2000mA500  30.911500  621.511141  2126.717139  37875.918921
#zp2hdmbbmzp2000mA600  33.799107  832.716327  2800.149826  37201.952495
#zp2hdmbbmzp2000mA700  55.563102  1253.543092  3802.053572  36972.418839
#zp2hdmbbmzp2000mA800  94.262513  1777.971707  5408.539207  35473.907250
#zp2hdmbbmzp2200mA300  20.429651  295.707896  1003.734511  37136.715182
#zp2hdmbbmzp2200mA400  15.070782  323.999938  1105.570119  37065.547699
#zp2hdmbbmzp2200mA500  15.404491  365.782823  1271.400881  37232.000320
#zp2hdmbbmzp2200mA600  30.483629  533.053570  1649.722737  37490.601892
#zp2hdmbbmzp2200mA700  43.866252  722.861830  2201.782661  37189.606523
#zp2hdmbbmzp2400mA300  12.080299  219.022633  681.405036  36040.132284
#zp2hdmbbmzp2400mA400  11.110754  218.370354  749.135278  36061.599212
#zp2hdmbbmzp2400mA500  15.257698  224.834853  780.171624  36408.785348
#zp2hdmbbmzp2400mA600  22.962084  301.526186  1038.970459  36767.043404
#zp2hdmbbmzp2400mA700  23.519503  440.266917  1368.330018  36739.807028
#zp2hdmbbmzp400mA300  1345.851768  2562.008547  665.041368  234.752815
#zp2hdmbbmzp400mA400  2073.157585  5857.043342  2316.032360  913.049541
#zp2hdmbbmzp2600mA300  6.694361  147.472310  438.128214  34848.668051
#zp2hdmbbmzp2600mA400  7.703716  131.378803  484.239374  35256.103838
#zp2hdmbbmzp2600mA500  9.787017  173.933740  556.491840  35350.818469
#zp2hdmbbmzp2600mA600  10.892891  229.864545  691.582364  35625.970709
#zp2hdmbbmzp2600mA700  16.615121  311.911600  902.772866  36271.871023
#zp2hdmbbmzp2800mA300  2.303037  93.641464  315.700144  33526.216157
#zp2hdmbbmzp2800mA400  4.058835  112.800223  319.829317  33695.973994
#zp2hdmbbmzp2800mA500  5.429282  111.141051  345.284116  33862.434897
#zp2hdmbbmzp2800mA600  5.409739  127.611404  465.807871  34309.266690
#zp2hdmbbmzp3000mA200  3.234813  59.889839  198.148862  32221.110363
#zp2hdmbbmzp3000mA300  4.054796  70.770818  237.785229  32026.874742
#zp2hdmbbmzp3000mA400  3.512562  72.010853  235.080093  32216.311882
#zp2hdmbbmzp3000mA500  1.410801  82.465192  261.197985  32916.704325
#zp2hdmbbmzp3000mA600  7.559783  96.758534  294.033181  32844.954480
#2HDMa_bb_tb10_sp035_mA300_ma150  583.194318  578.074149  22.329868  0.000000
#2HDMa_ggF_tb1_sp035_mA300_ma150  80.975989  70.670496  7.021364  0.000000
#2HDMa_bb_tb10_sp035_mA400_ma250  773.542711  753.992884  81.803696  0.000000
#2HDMa_ggF_tb1_sp035_mA400_ma250  184.874759  75.474456  3.520112  0.000000
#2HDMa_bb_tb10_sp035_mA600_ma350  3966.594470  1823.659274  55.417955  7.140202
#2HDMa_ggF_tb1_sp035_mA600_ma350  3296.073906  1986.100485  91.964946  0.000000
#2HDMa_bb_tb10_sp035_mA800_ma500  5045.933367  6477.604041  222.511786  4.362840
#2HDMa_ggF_tb1_sp035_mA800_ma500  5024.610640  7761.698242  515.240021  4.418986
#2HDMa_bb_tb10_sp035_mA1000_ma150  1579.344018  1957.643999  705.336759  30.127162
#2HDMa_ggF_tb1_sp035_mA1000_ma150  2000.414368  9511.947091  9971.097563  1382.455166
#2HDMa_bb_tb10_sp035_mA1100_ma250  1756.546498  2725.189215  1478.395941  220.326510
#2HDMa_ggF_tb1_sp035_mA1100_ma250  1648.843174  10481.620792  12473.357847  3437.450765
#2HDMa_bb_tb10_sp035_mA1200_ma350  1619.696822  3005.820544  1917.911956  513.156408
#2HDMa_ggF_tb1_sp035_mA1200_ma350  1682.688776  9049.579810  11733.890891  4926.016242
#2HDMa_bb_tb10_sp035_mA1300_ma500  2349.302073  4405.532512  3364.623624  1020.928098
#2HDMa_ggF_tb1_sp035_mA1300_ma500  1258.671151  9512.436573  12557.751592  5652.790781
#2HDMa_bb_tb10_sp035_mA1400_ma150  1544.143890  1411.312438  192.292448  132.373857
#2HDMa_ggF_tb1_sp035_mA1400_ma150  619.999381  2385.643999  2899.234203  3191.333599
#2HDMa_bb_tb10_sp035_mA1600_ma250  1702.351986  2095.516194  333.837397  219.990128
#2HDMa_ggF_tb1_sp035_mA1600_ma250  725.831992  858.171768  880.676086  1153.196426
#2HDMa_bb_tb10_sp035_mA1600_ma350  1674.277077  2376.185591  649.330062  434.823688
#2HDMa_ggF_tb1_sp035_mA1600_ma350  476.612208  1215.047184  1633.536194  2629.275322
#2HDMa_bb_tb10_sp035_mA1800_ma150  1549.610356  1292.915041  107.755645  55.677718
#2HDMa_ggF_tb1_sp035_mA1800_ma150  1040.641027  546.675625  77.022646  68.997116
#Mass window: 100 GeV < m_bb < 140 GeV: 

#category    resolved_150_200    resolved_200_350    resolved_350_500    merged
#------------------------------------------------------------------------------
#Z  2076.762929  1785.918660  197.341856  24.661636
#W  637.795426  615.580078  65.842296  7.473204
#ttbar  5175.850755  3874.984663  172.988385  3.575907
#stop  517.921638  389.404551  31.226175  2.109122
#VH  167.086594  183.853496  27.115177  5.537531
#diboson  100.774095  120.661511  20.398766  2.513219
------------------------------------------------------------------------------
zp2hdmbbmzp600mA300  10779.894626  6665.155497  42.272564  1.487416
zp2hdmbbmzp600mA400  1698.976542  490.983236  4.316425  1.511359
zp2hdmbbmzp800mA300  1264.879233  30183.357029  3441.511687  2.752081
zp2hdmbbmzp800mA400  2820.517558  26995.760777  939.679420  3.591306
zp2hdmbbmzp800mA500  7717.788485  14641.244694  392.356565  2.182639
zp2hdmbbmzp1000mA400  497.327501  15139.391964  23682.444450  191.726164
zp2hdmbbmzp1000mA500  927.273068  24828.306736  11564.705914  53.989925
zp2hdmbbmzp1000mA600  2316.461429  26223.158871  4712.972062  18.816107
zp2hdmbbmzp1200mA500  256.498474  6912.929983  29940.069828  3877.795242
zp2hdmbbmzp1200mA600  494.362155  12133.080070  26499.586250  1416.407239
zp2hdmbbmzp1200mA700  975.088295  18318.641335  17927.877415  961.998996
zp2hdmbbmzp1400mA500  84.157114  2343.261267  13014.724738  20611.499969
zp2hdmbbmzp1400mA600  162.416312  3799.087338  18898.526909  15058.811327
zp2hdmbbmzp1400mA700  257.845257  6608.468563  23419.857132  9104.891069
zp2hdmbbmzp1400mA800  497.452058  10272.585638  22200.315247  6013.246517
zp2hdmbbmzp1600mA300  27.521579  641.520117  3421.170304  28554.849018
zp2hdmbbmzp1600mA500  43.773416  1035.843275  5514.775245  27307.518139
zp2hdmbbmzp1600mA600  63.758826  1600.584078  7597.145926  25161.944473
zp2hdmbbmzp1600mA700  106.531834  2366.640664  11252.182043  21772.995628
zp2hdmbbmzp1600mA800  193.389686  4158.033276  15512.818995  17301.632895
zp2hdmbbmzp1800mA500  21.005964  511.575985  2606.936061  29137.806828
zp2hdmbbmzp1800mA600  34.076388  775.432883  3590.410991  28189.197357
zp2hdmbbmzp1800mA700  38.182279  1077.306451  5086.187517  27213.958233
zp2hdmbbmzp1800mA800  84.403081  1833.880471  7528.515667  25061.200851
zp2hdmbbmzp2000mA400  10.583008  233.345906  1139.445782  29084.729630
zp2hdmbbmzp2000mA500  11.345413  285.125149  1427.457657  29238.569481
zp2hdmbbmzp2000mA600  9.693303  368.680095  1876.194396  28787.940624
zp2hdmbbmzp2000mA700  27.852224  600.795762  2655.586490  29003.559456
zp2hdmbbmzp2000mA800  40.729707  920.947520  3856.529112  28002.058857
zp2hdmbbmzp2200mA300  9.894086  127.980004  654.278222  28184.306187
zp2hdmbbmzp2200mA400  5.798785  146.177073  731.431028  28143.495369
zp2hdmbbmzp2200mA500  6.688450  174.035277  830.985700  28421.950611
zp2hdmbbmzp2200mA600  12.271671  263.162702  1111.536227  28727.642559
zp2hdmbbmzp2200mA700  15.579625  347.412110  1474.490639  28678.732395
zp2hdmbbmzp2400mA300  2.775091  98.752683  456.156926  27145.267746
zp2hdmbbmzp2400mA400  2.940292  97.832935  496.161189  27133.017376
zp2hdmbbmzp2400mA500  6.666068  94.881410  512.419277  27450.907848
zp2hdmbbmzp2400mA600  12.620223  129.056557  695.402242  27958.514320
zp2hdmbbmzp2400mA700  11.127387  212.905229  946.586956  27898.496590
zp2hdmbbmzp400mA300  890.976920  1835.416591  537.066560  193.891086
zp2hdmbbmzp400mA400  1327.400953  4209.389110  1883.950921  749.238363
zp2hdmbbmzp2600mA300  0.835427  77.062510  286.207714  25976.435577
zp2hdmbbmzp2600mA400  2.823255  67.774873  316.373732  26433.181480
zp2hdmbbmzp2600mA500  3.196243  76.572859  362.236888  26533.369347
zp2hdmbbmzp2600mA600  4.119939  105.653511  462.006866  26737.148056
zp2hdmbbmzp2600mA700  5.039266  146.811709  627.244846  27409.206913
zp2hdmbbmzp2800mA300  0.783496  47.135388  205.689019  24850.654240
zp2hdmbbmzp2800mA400  1.997552  56.407523  213.194181  24802.258099
zp2hdmbbmzp2800mA500  3.248698  53.567141  239.367420  25044.585014
zp2hdmbbmzp2800mA600  1.371785  52.340546  316.995304  25533.318222
zp2hdmbbmzp3000mA200  0.000000  23.863322  134.116137  23512.741283
zp2hdmbbmzp3000mA300  1.288979  36.806261  159.290830  23374.593597
zp2hdmbbmzp3000mA400  0.682814  33.443587  156.395226  23567.378597
zp2hdmbbmzp3000mA500  1.410801  42.547851  171.784076  24134.669857
zp2hdmbbmzp3000mA600  2.018211  39.361689  195.308085  24278.156525
2HDMa_bb_tb10_sp035_mA300_ma150  373.325028  375.783084  14.576197  0.000000
2HDMa_ggF_tb1_sp035_mA300_ma150  57.243829  45.888829  3.571788  0.000000
2HDMa_bb_tb10_sp035_mA400_ma250  456.298420  460.011028  59.888093  0.000000
2HDMa_ggF_tb1_sp035_mA400_ma250  130.276082  50.918283  3.520112  0.000000
2HDMa_bb_tb10_sp035_mA600_ma350  2587.237309  985.775218  28.359929  7.140202
2HDMa_ggF_tb1_sp035_mA600_ma350  2413.633343  1325.358682  42.486826  0.000000
2HDMa_bb_tb10_sp035_mA800_ma500  3198.498896  4253.848724  90.558434  4.362840
2HDMa_ggF_tb1_sp035_mA800_ma500  3387.999825  5422.930573  315.202348  4.418986
2HDMa_bb_tb10_sp035_mA1000_ma150  894.160282  1211.901289  580.257078  15.088411
2HDMa_ggF_tb1_sp035_mA1000_ma150  1352.092478  6228.719362  8161.878971  1099.008772
2HDMa_bb_tb10_sp035_mA1100_ma250  1080.751877  1880.314855  1210.173309  131.932286
2HDMa_ggF_tb1_sp035_mA1100_ma250  917.171041  7494.803703  10035.995338  2671.806009
2HDMa_bb_tb10_sp035_mA1200_ma350  933.101427  1827.298995  1422.733610  441.510192
2HDMa_ggF_tb1_sp035_mA1200_ma350  1077.274457  6367.534952  9398.107803  4094.325763
2HDMa_bb_tb10_sp035_mA1300_ma500  1384.982394  2631.435878  2503.747927  812.562561
2HDMa_ggF_tb1_sp035_mA1300_ma500  712.245562  6574.461317  10176.922401  4413.346569
2HDMa_bb_tb10_sp035_mA1400_ma150  982.613827  867.942589  127.948085  101.721052
2HDMa_ggF_tb1_sp035_mA1400_ma150  457.786316  1543.770542  2209.225479  2556.396132
2HDMa_bb_tb10_sp035_mA1600_ma250  1102.111807  1397.366865  263.175534  160.957568
2HDMa_ggF_tb1_sp035_mA1600_ma250  489.188445  569.353299  693.564030  910.065169
2HDMa_bb_tb10_sp035_mA1600_ma350  1036.994978  1411.571254  478.768010  344.419302
2HDMa_ggF_tb1_sp035_mA1600_ma350  288.798412  829.212491  1237.778251  2093.210646
2HDMa_bb_tb10_sp035_mA1800_ma150  1053.117568  830.824181  57.644083  40.389794
2HDMa_ggF_tb1_sp035_mA1800_ma150  770.370452  363.099322  57.812475  55.133729
------------------------------------------------------------------------------
bkg_tot  8676.191437  6970.402959  514.912654  45.870620