311685          MGPy8EG_A14N30LO_2HDMa_ggF_monoHbb_tb1_sp035_mA1300_ma500               0.003812                9.7514E-01              1.0             0.0             0.0             MadGraph.2.6.1+Pythia8.230+EvtGen               e7412
311684          MGPy8EG_A14N30LO_2HDMa_ggF_monoHbb_tb1_sp035_mA800_ma500                0.016717                9.3149E-01              1.0             0.0             0.0             MadGraph.2.6.1+Pythia8.230+EvtGen               e7412
311683          MGPy8EG_A14N30LO_2HDMa_ggF_monoHbb_tb1_sp035_mA1600_ma350               0.010566                8.0042E-01              1.0             0.0             0.0             MadGraph.2.6.1+Pythia8.230+EvtGen               e7412
311682          MGPy8EG_A14N30LO_2HDMa_ggF_monoHbb_tb1_sp035_mA1200_ma350               0.0091405               9.5650E-01              1.0             0.0             0.0             MadGraph.2.6.1+Pythia8.230+EvtGen               e7412
311681          MGPy8EG_A14N30LO_2HDMa_ggF_monoHbb_tb1_sp035_mA600_ma350                0.078989                8.8726E-01              1.0             0.0             0.0             MadGraph.2.6.1+Pythia8.230+EvtGen               e7412
311680          MGPy8EG_A14N30LO_2HDMa_ggF_monoHbb_tb1_sp035_mA1600_ma250               0.026225                7.5887E-01              1.0             0.0             0.0             MadGraph.2.6.1+Pythia8.230+EvtGen               e7412
311679          MGPy8EG_A14N30LO_2HDMa_ggF_monoHbb_tb1_sp035_mA1100_ma250               0.01679         9.5976E-01              1.0             0.0             0.0             MadGraph.2.6.1+Pythia8.230+EvtGen               e7412
311678          MGPy8EG_A14N30LO_2HDMa_ggF_monoHbb_tb1_sp035_mA400_ma250                0.23405         7.1168E-01              1.0             0.0             0.0             MadGraph.2.6.1+Pythia8.230+EvtGen               e7412
311677          MGPy8EG_A14N30LO_2HDMa_ggF_monoHbb_tb1_sp035_mA1800_ma150               0.2005          7.9087E-01              1.0             0.0             0.0             MadGraph.2.6.1+Pythia8.230+EvtGen               e7412
311676          MGPy8EG_A14N30LO_2HDMa_ggF_monoHbb_tb1_sp035_mA1400_ma150               0.018698                8.2743E-01              1.0             0.0             0.0             MadGraph.2.6.1+Pythia8.230+EvtGen               e7412
311675          MGPy8EG_A14N30LO_2HDMa_ggF_monoHbb_tb1_sp035_mA1000_ma150               0.043075                9.2553E-01              1.0             0.0             0.0             MadGraph.2.6.1+Pythia8.230+EvtGen               e7412
311674          MGPy8EG_A14N30LO_2HDMa_ggF_monoHbb_tb1_sp035_mA300_ma150                1.6161          6.1554E-01              1.0             0.0             0.0             MadGraph.2.6.1+Pythia8.230+EvtGen               e7412
311673          MGPy8EG_A14N30LO_2HDMa_bb_monoHbb_tb10_sp035_mA1300_ma500               0.002127                8.6062E-01              1.0             0.0             0.0             MadGraph.2.6.1+Pythia8.230+EvtGen               e7412
311672          MGPy8EG_A14N30LO_2HDMa_bb_monoHbb_tb10_sp035_mA800_ma500                0.004736                8.9547E-01              1.0             0.0             0.0             MadGraph.2.6.1+Pythia8.230+EvtGen               e7412
311671          MGPy8EG_A14N30LO_2HDMa_bb_monoHbb_tb10_sp035_mA1600_ma350               0.0060314               7.5570E-01              1.0             0.0             0.0             MadGraph.2.6.1+Pythia8.230+EvtGen               e7412
311670          MGPy8EG_A14N30LO_2HDMa_bb_monoHbb_tb10_sp035_mA1200_ma350               0.0079415               7.7353E-01              1.0             0.0             0.0             MadGraph.2.6.1+Pythia8.230+EvtGen               e7412
311669          MGPy8EG_A14N30LO_2HDMa_bb_monoHbb_tb10_sp035_mA600_ma350                0.019367                8.3912E-01              1.0             0.0             0.0             MadGraph.2.6.1+Pythia8.230+EvtGen               e7412
311668          MGPy8EG_A14N30LO_2HDMa_bb_monoHbb_tb10_sp035_mA1600_ma250               0.015499                6.5461E-01              1.0             0.0             0.0             MadGraph.2.6.1+Pythia8.230+EvtGen               e7412
311667          MGPy8EG_A14N30LO_2HDMa_bb_monoHbb_tb10_sp035_mA1100_ma250               0.02107         6.6824E-01              1.0             0.0             0.0             MadGraph.2.6.1+Pythia8.230+EvtGen               e7412
311666          MGPy8EG_A14N30LO_2HDMa_bb_monoHbb_tb10_sp035_mA400_ma250                0.066091                6.5822E-01              1.0             0.0             0.0             MadGraph.2.6.1+Pythia8.230+EvtGen               e7412
311665          MGPy8EG_A14N30LO_2HDMa_bb_monoHbb_tb10_sp035_mA1800_ma150               0.039152                6.7266E-01              1.0             0.0             0.0             MadGraph.2.6.1+Pythia8.230+EvtGen               e7412
311664          MGPy8EG_A14N30LO_2HDMa_bb_monoHbb_tb10_sp035_mA1400_ma150               0.050995                6.7043E-01              1.0             0.0             0.0             MadGraph.2.6.1+Pythia8.230+EvtGen               e7412
311663          MGPy8EG_A14N30LO_2HDMa_bb_monoHbb_tb10_sp035_mA1000_ma150               0.06268         6.7784E-01              1.0             0.0             0.0             MadGraph.2.6.1+Pythia8.230+EvtGen               e7412
311662          MGPy8EG_A14N30LO_2HDMa_bb_monoHbb_tb10_sp035_mA300_ma150                0.23085         5.5542E-01              1.0             0.0             0.0             MadGraph.2.6.1+Pythia8.230+EvtGen               e7412
